…
```r
Steps <- activity.Id %>% select(Id, steps)
interval <- activity.Id %>% select(Id,interval)
dAte <- as.Date(activity$date, "%m/%d/%y")
id <- activity.Id$Id
Data <- data.frame(Id = id, steps = activity.Id$steps, date = dAte, interval = activity.Id$interval)
Movement <- na.omit(Data)
tibble(Movement)
```

```
## # A tibble: 15,264 x 4
##       Id steps date       interval
##    <int> <int> <date>        <int>
##  1   289     0 2012-10-02        0
##  2   290     0 2012-10-02        5
##  3   291     0 2012-10-02       10
##  4   292     0 2012-10-02       15
##  5   293     0 2012-10-02       20
##  6   294     0 2012-10-02       25
##  7   295     0 2012-10-02       30
##  8   296     0 2012-10-02       35
##  9   297     0 2012-10-02       40
## 10   298     0 2012-10-02       45
## # … with 15,254 more rows
```
…
```r
median <- 0
activity[is.na(activity)] = median

###Creating a new dataset of data with input values:
activity2 <- activity
tibble(activity2)
```

```
## # A tibble: 17,568 x 3
##    steps date    interval
##    <dbl> <chr>      <int>
##  1     0 10/1/12        0
##  2     0 10/1/12        5
##  3     0 10/1/12       10
##  4     0 10/1/12       15
##  5     0 10/1/12       20
##  6     0 10/1/12       25
##  7     0 10/1/12       30
##  8     0 10/1/12       35
##  9     0 10/1/12       40
## 10     0 10/1/12       45
## # … with 17,558 more rows
```
…
```r
activity.data.1 <- mutate(activity.data,weekday = weekdays(activity.data$date))
tibble(activity.data.1)
```

```
## # A tibble: 17,568 x 4
##    steps date       interval weekday
##    <dbl> <date>        <int> <chr>  
##  1     0 2012-10-01        0 Monday 
##  2     0 2012-10-01        5 Monday 
##  3     0 2012-10-01       10 Monday 
##  4     0 2012-10-01       15 Monday 
##  5     0 2012-10-01       20 Monday 
##  6     0 2012-10-01       25 Monday 
##  7     0 2012-10-01       30 Monday 
##  8     0 2012-10-01       35 Monday 
##  9     0 2012-10-01       40 Monday 
## 10     0 2012-10-01       45 Monday 
## # … with 17,558 more rows
```
…
